<svg xmlns="http://www.w3.org/2000/svg" viewBox="0 0 549 170.3793">
  <g id="Layer_2" data-name="Layer 2">
    <g id="Layer_1-2" data-name="Layer 1">
      <g id="Layer_2-2" data-name="Layer 2">
        <g id="Layer_1-2-2" data-name="Layer 1-2">
          <g>
            <path d="M137.4024,59.9868a58.5317,58.5317,0,0,0,.1893,7.7645c-.0946.0947-.0946.0947-.1893.0947,5.0229,3.5775-4.479,1.9514-6.247,2.1743a9.3075,9.3075,0,0,1-3.7836,0c-1.9216.2841-1.2119-1.2585-.189-1.9876,1.1221-3.2626-.2087-6.6954.2814-9.8438-.134-6.5147.0646-12.6537-.0005-19.1213-.152-5.3038-.0948-10.4613.0972-15.7218.3846-1.24-2.9508-1.98-.757-2.8367a117.676,117.676,0,0,1,17.5107.0917,1.8665,1.8665,0,0,1,1.8012.1906,1.6788,1.6788,0,0,1,1.798.4732c1.1923-.2655,1.7779.7738,2.8368,1.1358,2.26.8934,3.4922,2.9028,4.4527,5.0137a17.7487,17.7487,0,0,1,1.041,6.6259,3.0418,3.0418,0,0,1,0,2.461c.4464,1.0022-.2436,2.3486-.0923,3.2159,1.2155,8.3323-2.7923,17.6576-12.4983,17.1351C140.8359,57.2183,135.8258,55.2408,137.4024,59.9868Zm1.42-12.4051c1.897-.3777,3.8736.2057,5.3006-1.2291.568-.0946.666-.4732.9467-.9465.2868-.3786.8552-.3786.7572-.9466-.0947-.6626.1893-.8519.2863-1.5116a10.0222,10.0222,0,0,0,.0949-4.07c.1623-1.0566.5243-1.69.0911-2.745a5.9725,5.9725,0,0,0-1.51-4.6414c-1.0654-2.1114-4.7916-1.68-6.8174-1.5176-.7574-.1891-.7574,1.5147-.6656,2.0827.5712,5.1173-.408,10.3647.1893,15.4316C138.0638,47.49,138.2535,47.7712,138.8222,47.5817Z" fill="#fff"/>
            <path d="M163.9967,67.9411c-.4493-10.9434.053-21.8546-.2842-32.6536.5888-3.0209-.3-6.2637.1892-9.28-.1611-1.03.3347-2.76-.4724-3.5941a2.47,2.47,0,0,1-.8524-1.5144c1.1567-1.11,3.4216-.1584,4.8273-.4761,1.3963-.02,9.1633-.9524,7.1971,1.6121-2.3724,3.0184.2054,8.0059-.9475,11.6428a42.3892,42.3892,0,0,0,.2845,7.9512c-.1733,4.3691-.1832,8.9788-.0944,13.1537-.5306,3.8569.1069,8.5006.0018,12.4079-.3783.9465.0978.6626.5683,1.2305,1.0837,1.2387.6134,1.7373-.9467,1.9876-2.89-.5659-5.8954-.1756-8.7995-.2839C161.7936,70.0628,161.6031,69.6876,163.9967,67.9411Z" fill="#fff"/>
            <path d="M203.2819,69.9284c-5.0256.3676-9.7724-.05-14.86-.0971-1.0946.3885-10.6232.9014-6.5312-1.3225.9642-1.6778.1454-3.73.5685-5.59-.5624-1.5558.1589-3.5159-.098-5.1153-.1313-3.9445-.0974-7.7428-.0005-11.6425a4.8258,4.8258,0,0,1,.19-2.4572,1.8594,1.8594,0,0,1-.0916-1.8932c-.3335-4.4709-.1249-9.0246-.0925-13.4467-.2091-2.3035.8753-5.5963-1.3249-7.0989-1.0487-1.5172,6.5641-.8184,7.3868-.7577.3787,0,.568-.3784.9466-.3784s.568.3786.9466.3786A121.4184,121.4184,0,0,1,203.289,20.41c1.6025-.191,3.2384.0678,4.8275-.0917.6625-.2844.4732,0,.8518.3782a23.6775,23.6775,0,0,1,.0981,8.8039c.5365,2.4342-.6831,1.8-1.8019.3785-1.8571-.4716-4.202-.0744-6.1525-.0026-1.3973-.1568-2.8374-.5843-4.26-.1917-1.2423.5052-5.7251-1.2259-4.5436,1.3249.3014,2.5579-.4521,5.1637.0952,7.7619.1889.4757-.7538,1.3252,0,1.5145,3.3654-.1535,6.819-.2507,10.227-.2818,1.011.3126,1.25-1.1545,2.0824-1.3283-.1893,0,.9466.1893.7573.0947a38.6835,38.6835,0,0,1,.0035,9.37c.6115,2.4533-.4657,3.8561-2.1778,1.3251-3.4382-.2369-7.0873-.0548-10.6042,0-.8252.7614-.2505,2.5883-.19,3.6917-.7242,1.989-.0216,4.036-.1884,6.058-.5435,1.9314.6016,1.6327,1.8966,1.42a85.3275,85.3275,0,0,1,8.8027.1918,10.8994,10.8994,0,0,1,3.313-.0921c2.2964-.8754,3.147-2.952,2.7478,1.1385a14.3647,14.3647,0,0,1,0,5.6785C210.5551,71.8786,205.7033,69.6155,203.2819,69.9284Z" fill="#fff"/>
            <path d="M216.6255,63.68c.1711-9.4429.12-18.7447-.0022-28.39.097-4.0646.0449-8.0581.1886-12.115.0952-.4761-2.1808-1.992-1.1354-2.4638,1.9082-.7738,3.9344.2392,5.8686-.2867,1.5846.4643,4.5566-.838,5.3956.757,1.985,5.1828,4.2732,10.31,6.72,15.2429,1.1386,3.0106,2.4763,6.0308,3.6939,8.8976.1083-4.3786-.1335-8.4081-.0946-12.7823a49.2042,49.2042,0,0,0-.0943-10.0367c-.379-.5679-1.3256-.5679-1.2342-1.3252,1.0371-1.4662,5.0419-.4773,6.72-.6631,1.6147.1148,4.8907-.758,5.9608.2816.3785.7578-.9467,1.4241-1.322,1.7043-.7573.4761.0946,1.7038.0946,2.1771a9.5043,9.5043,0,0,0-.0946,2.2717c.354,3.9449-.3659,7.9917,0,11.8291-.273,8.5374.3168,17.1279-.1884,25.8356.31,1.1936-.0911,2.8716.8511,3.6925.379.3744.8522.8519.5683,1.5116-2.5032.9866-5.8378.1418-8.6159.3814-1.0942-.49-3.5783.7013-3.9792-.5678,1.3576-1.1,1.0586-1.7939.2872-3.1242-.3645-1.1147-1.3789-2.3157-1.5141-3.4047-2.3419-4.6988-4.1382-9.4541-6.5313-14.2029-.3014-.7952-.1148-1.487-.8521-2.0786-.4436-.4175-.1739-2.3082-.9486-1.8012a4.9933,4.9933,0,0,0,.3762,1.8934c-.39,6.37.2686,12.8225-.2839,19.0233,1.0191,1.5823-.9888,1.6443.9465,2.745,1.6251,1.7959-1.1531,1.6309-2.3664,1.5143-1.1864-.5244-2.5351.3831-3.6916,0-.8552-.3788-1.1358.1891-1.8931.0944l-2.177-.2868c-2.9747.8382-2.37-1.1473-.568-2.1747C216.7178,66.4252,216.6255,65.0986,216.6255,63.68Z" fill="#fff"/>
            <path d="M257.136,40.8617c-9.7926-15.6647,13.3095-27.0711,25.2821-18.08a2.142,2.142,0,0,1,1.4224,1.0411,19.8853,19.8853,0,0,1,2.8367,3.594c1.11,1.4694,2.1286,3.13-.0917,4.07a61.5748,61.5748,0,0,1-5.7777,3.6007c-.7572.9429-2.65,1.9879-2.461,0,.67-2.3786-1.5161-3.8386-3.4077-4.6383-10.6879-3.1875-12.7034,5.5286-1.7032,7.95,2.0495,1.38,5.1335,1.5454,6.9126,3.503a22.7368,22.7368,0,0,1,4.5406,2.6535,3.481,3.481,0,0,0,1.7074,1.609A14.1493,14.1493,0,0,1,289.33,57.6215a16.8133,16.8133,0,0,1-4.4512,8.9945c-8.2643,7.5272-25.8165,5.1207-29.538-6.1593,1.4476-1.7151,4.0356-2.9137,5.5833-4.7334,1.0874-.6452,2.8621-2.785,4.1693-2.6468,0,0,.1893,1.8907.1893,1.9877-.0974.4733-.7572.8519-.2868,1.3252,1.3655,1.853,2.981,3.5236,5.3984,3.88,3.2965,1.3873,8.5536-.7141,7.67-4.8274-1.13-4.7-7.1507-5.1314-10.6031-7.4778A20.3991,20.3991,0,0,1,257.136,40.8617Zm3.1236,3.2216a2.61,2.61,0,0,1-.5679-.4761,2.5792,2.5792,0,0,1,.5684.4761Z" fill="#fff"/>
            <path d="M294.9053,68.4125c5.0431-14.7265,8.135-29.8046,12.4023-44.7779.1888-.4734.6654-.852.1888-1.2307-.6809-.4928-1.2942-2.2275.19-1.8964a67.9118,67.9118,0,0,1,7.0989.0926c1.6052.18,6.4267-1.359,4.7372,1.6109-.8554,1.42.4731,3.2186.7571,4.6384,1.2448,5.1564,2.4608,10.21,3.9769,15.2376,1.7887,6.96,3.7015,13.6556,5.3991,20.5453.836,1.765.58,4.0073,1.7034,5.5876,4.1141,3.526-3.284,1.14-4.8281,1.9875-1.1327.6657-2.65-.3784-3.6884,0a2.7468,2.7468,0,0,1-2.2716-.1895c-1.0413,0-.568-.3784-.1894-1.1356a2.87,2.87,0,0,0,.0945-3.597c-.5636-.8518-.0922-1.9877-.7533-2.84-.6655-.7572-.2864-1.6129-.4762-2.3711-2.09-2.4923-8.0944.1361-11.26-1.0409-.5682-.094-.3789,1.3258-.4764,1.7991-.2241,1.3474-1.5067,2.3111-1.1385,3.7905.435,1.2586-2.1886,3.2688-.2843,3.7862,2.1823,2.6146-2.081,1.5237-3.4074,1.7983C301.0142,69.8093,291.8065,71.53,294.9053,68.4125ZM311.9461,49.666c1.1606.0394,2.8023.2954,3.9755.3786.9465.0971.0946-.8518,0-1.0411-.1731-3.5773-2.3176-6.7876-2.3686-10.4169a.3653.3653,0,0,0-.5681.1894c-.284,3.32-1.7514,6.2972-2.366,9.5611C309.92,50.2942,310.0989,50.0491,311.9461,49.666Z" fill="#fff"/>
            <path d="M380.0027,69.9284c-5.0257.3676-9.7725-.05-14.86-.0971-1.0943.3891-10.6258.9-6.5313-1.3225.9642-1.6778.1453-3.73.5685-5.59-.5573-1.5573.1588-3.5164-.0951-5.1153-.1327-3.9446-.0911-7.7421-.0006-11.6425a4.8794,4.8794,0,0,1,.19-2.4572,1.8666,1.8666,0,0,1-.0945-1.8932c-.3355-4.47-.1274-9.0244-.1-13.4467-.2091-2.3034.8751-5.5963-1.3249-7.0989-1.0487-1.5173,6.5652-.8182,7.3868-.7577.3787,0,.568-.3784.9466-.3784s.568.3786.9466.3786a73.7793,73.7793,0,0,1,10.13-.097c2.5484-.2464,5.1325.1046,7.667-.0922.6626-.2841.4733,0,.8519.3785a23.6881,23.6881,0,0,1,.0976,8.8039c-.0005.284.4727,2.1771-.4767,1.6091-2.3461-2.8044-6.3236-.5974-9.4655-1.52-1.4624-.1689-2.8187.2519-4.26.0946-1.2305.19-3.5022-.7569-2.5557,1.3255.2991,2.5577-.4515,5.1634.0951,7.7617.1889.4757-.7539,1.3252,0,1.5145,3.3662-.1536,6.8191-.2507,10.227-.2818,1.011.3126,1.2495-1.1545,2.0824-1.3283-.1893,0,.9466.1893.7573.0947a38.5614,38.5614,0,0,1,.0007,9.37c.6114,2.4533-.4657,3.8561-2.1778,1.3251-3.4382-.2369-7.0873-.0548-10.6042,0-.8254.7612-.2507,2.5883-.19,3.6917-.7242,1.989-.0216,4.0361-.1885,6.058-.5457,1.9323.5991,1.6323,1.8947,1.42a85.3386,85.3386,0,0,1,8.8.1918,10.8989,10.8989,0,0,1,3.3129-.0921c2.2965-.8755,3.1475-2.952,2.7479,1.1385a14.3647,14.3647,0,0,1,0,5.6785C387.2593,71.874,382.4334,69.6181,380.0027,69.9284Z" fill="#fff"/>
            <path d="M393.3457,63.68c.17-9.4427.1246-18.7444.0031-28.39.1022-4.0649.0469-8.0579.1914-12.115.0951-.4761-2.1813-1.992-1.1354-2.4638,1.9083-.7738,3.9344.2392,5.8686-.2867,1.5847.4643,4.5566-.838,5.3956.757,1.9857,5.1841,4.2726,10.3083,6.72,15.2429,1.1387,3.0106,2.4773,6.0307,3.6916,8.8976.1083-4.3786-.1336-8.4081-.0947-12.7823a49.1969,49.1969,0,0,0-.0942-10.0367c-.379-.5679-1.3256-.5679-1.2342-1.3252,1.035-1.4664,5.0443-.4774,6.7227-.6631,1.6146.1148,4.8912-.758,5.9612.2816.3785.7578-.9466,1.4241-1.322,1.7043-.7572.4761.0947,1.7038.0947,2.1771a9.4837,9.4837,0,0,0-.0947,2.2717c.354,3.9449-.3673,7.9923,0,11.8291-.2733,8.5385.3161,17.1279-.1889,25.8356.31,1.1936-.0911,2.8716.8511,3.6925.379.3744.8523.8519.5683,1.5116-2.5032.9866-5.8377.1418-8.6159.3814-1.0934-.49-3.58.7013-3.9791-.5678,1.3575-1.1,1.0587-1.794.2872-3.1242-.3646-1.1147-1.3789-2.3157-1.5142-3.4047-2.3412-4.699-4.1383-9.4541-6.5313-14.2029-.1519-1.4279-1.22-2.3163-1.3281-3.7825-.9346-.9651-.239,1.5206-.0972,1.7959-.3924,6.37.271,12.8241-.2816,19.0235,1.0191,1.5823-.9888,1.6443.9464,2.745,1.6261,1.7978-1.1529,1.63-2.3664,1.5143-1.1864-.5244-2.5351.3831-3.6916,0-.8547-.3788-1.1358.1891-1.893.0944l-2.1771-.2868c-2.9747.8382-2.37-1.1473-.5679-2.1747C393.4385,66.4252,393.3457,65.0986,393.3457,63.68Z" fill="#fff"/>
            <path d="M105.8354,105.6967c-.05-2.0164-.6234-4.0367-.0967-6.057-.3176-1.2592-.5636-4.5387,1.5165-3.3138,9.8819-.4109,19.9408-.04,29.92-.2843,2.526-.4929.6136,7.57,1.228,9.2734.0563,2.28-.9506,1.7861-2.1774.5685-2.3764-1.4694-5.7317.3238-8.2349-.2818-.3787,0-1.3252-.189-.9466.5682.1734,2.5185-.4715,5.1905,0,7.6667-.2412,9.8256.0556,19.6723-.0923,29.7231,2.4348,2.7959,1.253,2.6233-1.7982,2.174-.6657-.0921-1.2341.287-1.8929.287-.5679.0947-1.1358-.5679-1.6091-.2868-1.8224.74-3.9035-.2452-5.8658,0-.7572-.8519,1.701-1.9877,1.3219-2.648-.6626-1.045.1893-2.745,0-3.98-.09-1.3209-.1551-2.4448-.1889-3.7834.3333-9.9-.0175-19.8952.1084-29.7217-2.9972-.3736-6.0948.4786-9.0931-.1917-.5352.5294-.8758,1.9253-1.8931,1.6092A6.2107,6.2107,0,0,1,105.8354,105.6967Z" fill="#fff"/>
            <path d="M145.7775,143.6653c-.45-10.9442.0538-21.8551-.2819-32.6537.5889-3.0209-.3-6.2639.1892-9.28-.1611-1.0305.3347-2.76-.4724-3.5941a2.4674,2.4674,0,0,1-.8524-1.5144c1.1568-1.11,3.4215-.1584,4.8274-.4762,1.3961-.0239,9.1634-.9519,7.197,1.6121-2.37,3.0176.2008,8.0031-.9475,11.64a42.39,42.39,0,0,0,.2845,7.9513c-.17,4.3683-.18,8.9782-.0944,13.1537-.5306,3.8568.1069,8.5006.0018,12.4078-.3783.9466.095.6627.5683,1.2306,1.0837,1.2386.6134,1.7373-.9467,1.9876-2.89-.566-5.8954-.1757-8.8-.284C143.5853,145.7845,143.38,145.4131,145.7775,143.6653Z" fill="#fff"/>
            <path d="M192.823,135.7109a57.9832,57.9832,0,0,0,.1917,7.7646c-.097.0946-.097.0946-.1893.0946,5.0225,3.5777-4.479,1.9514-6.247,2.1743a9.3075,9.3075,0,0,1-3.7836,0c-1.9218.2842-1.2129-1.2582-.19-1.9876a14.1838,14.1838,0,0,0,.0921-6.91c.4161-2.11.017-4.4411,0-6.7238a26.4382,26.4382,0,0,0,0-7.6643c.7388-2.2894-.2088-5.2165.1874-7.667-.1524-5.3012-.0961-10.4559.0962-15.7138.3847-1.24-2.9507-1.98-.757-2.8366a117.8164,117.8164,0,0,1,17.5112.094,1.8674,1.8674,0,0,1,1.8017.1905A1.6792,1.6792,0,0,1,203.3348,97c1.1929-.2655,1.7772.7738,2.8369,1.1358,2.26.8934,3.4917,2.9028,4.4522,5.0137a17.7505,17.7505,0,0,1,1.041,6.6258,3.0418,3.0418,0,0,1,0,2.461c.4461,1.0023-.2425,2.3485-.0946,3.216,1.2154,8.3323-2.7923,17.6575-12.4982,17.135C196.2629,132.9555,191.2457,130.9726,192.823,135.7109Zm1.42-12.405c1.8969-.3818,3.8733.2031,5.3006-1.2339.568-.0946.6655-.4732.9467-.9465.2868-.3786.8552-.3786.7572-.9466-.0946-.6626.1893-.8519.284-1.5116a9.9508,9.9508,0,0,0,.0948-4.07c.1633-1.0561.5242-1.69.094-2.745a5.9719,5.9719,0,0,0-1.51-4.6414c-1.06-2.1125-4.7932-1.6793-6.8173-1.5176-.7575-.1891-.7575,1.5147-.6657,2.0827.5714,5.1173-.4083,10.3648.1893,15.4316C193.4839,123.2139,193.6741,123.4953,194.2428,123.3059Z" fill="#fff"/>
            <path d="M217.998,97.1787c-1.8155-1.8985,6.4067-1.1221,7.099-.8525.9062-.4578,1.4274.0136,2.2719-.1859,3.1626-.0544,6.671-.4218,9.8441.2834,1.354.6468,2.8642.1122,4.07,1.0413,1.271.21,2.1113,1.2226,3.1235,2.086,3.909,4.4895,4.0038,10.8956,3.3131,16.5667.2982,3.8534.0862,7.9042-2.1795,11.264a6.841,6.841,0,0,1-3.2216,3.5023c-1.0412.4761.2868,1.6091.3787,2.2717,1.7956,3.5744,3.4072,7.27,5.3978,10.89.282.4731,1.6095,1.7983.282,1.7983-1.5653-.2815-2.876.23-4.3513.0927-2.0862-.1444-3.9954.2438-6.06-.1926-1.5214.6454-3.3959-.09-1.4169-1.42.4732-.5677.8518-.6624.2839-1.325a23.3847,23.3847,0,0,1-2.8432-6.15,1.842,1.842,0,0,1-.6621-1.7069c-.19-.2838-.5682-.3785-.6629-.6624-.4342-1.9807-1.3377-1.9047-3.0334-1.8966-1.1323-.19-.3784,2.5554-.3784,3.1233a41.19,41.19,0,0,0-.0942,4.26,23.8741,23.8741,0,0,0-.2847,3.5969c.3789,1.0412,2.75,1.7984.4764,2.2717-3.163.41-6.4288-.4553-9.6558.0005-1.216.0508-2.5639.2284-1.42-1.4228,1.656-1.946.3612-5.1229.8556-7.5717-.4376-2.0326.2605-4.2537.0946-6.1556a4.8033,4.8033,0,0,1-.19-2.84c.2176-4.04-.1186-8.0325.1-12.12.0088-4.59-.1513-9.2518.0943-13.7331C218.6371,100.4386,220.0925,98.3357,217.998,97.1787Zm12.5891,26.2242c2.9066.2184,6.6621-.9593,7.1022-4.262.4252-4.6938,2.0619-13.3811-4.9287-13.4468-.6628-.0925-3.6918-.4735-3.7864.1891.166,2.4363-.3205,5.1428-.0006,7.483a11.7352,11.7352,0,0,1-.0968,5.3006c0,.3787.3785.4733.3785.9466s-.4732.6626-.2839,1.2305c.1893.8519-.1894,1.7038,0,2.4611.6691.0009,1.0482-.1842,1.6166.0979Z" fill="#fff"/>
            <path d="M256.3314,143.0968c.2812-13.8921-.1423-28.0771.1-42.2147.1894-.6655-.4756-1.2343-.1893-1.8931.4733-.9466-1.992-1.8931-.7572-2.9343,3.7014.0813,7.713-.1274,11.5508.0945.2816,0,.6626-.2838.6626.2864.1637,1-1.5453,1.2442-1.4175,2.2718.1824,4.5355-.1479,8.89,0,13.4424.0734,2.6683.1649,5.3026.0945,7.9525-.189.4732.0978.8519.0978,1.3251a2.093,2.093,0,0,0,0,1.8893c-.2227,1.12.3292,1.9489-.2873,2.9338-.1907,2.0345.2876,4.0624,0,6.0552a12.8191,12.8191,0,0,1,.0968,3.8809,24.0378,24.0378,0,0,1,.0007,5.9632c-.4367,2.1142,3.7338,3.9652-.7576,3.7863-3.2826.0712-6.56-.4432-9.7489,0C254.295,145.3531,256.3488,144.059,256.3314,143.0968Z" fill="#fff"/>
            <path d="M274.9809,140.7305c.1216-5.0354.02-9.76-.0948-14.7643.2949-4.6166.1245-8.8562.0951-13.4425-.9087-3.6916,1.8894-13.1751-1.1353-15.1422-.6246-2.3731,5.3938-.5874,6.9087-1.1386,1.1865.0539,2.8091.0475,3.8811,0,.5679.5682,1.2305,1.0415,1.7038,1.6094,2.113,3.7336,5.6166,7.8378,8.14,11.3634a15.9566,15.9566,0,0,1,2.0824-2.7484c.8975-.931.8253-2.2681,1.9881-3.0258.8619-2.0467,2.4828-3.8446,3.6917-5.5875,0-.7575.5675-1.0415,1.1354-1.5147,3.5522-.2038,7.4829-.053,10.9767-.0971.2864.1893-.5679,1.8931-.8519,1.9878-1.1736,2.6758.1393,7.0232-.2871,10.1308-.3575,9.007-.0852,18.0825-.0943,27.1732-.1562,2.2946-.0479,4.5508-.0938,6.8181-.3791,1.0412.0942,1.2305.665,1.7984.6626.6626.8519.6626.4733,1.6091-.3787.7573-1.0412,0-1.7038.0971-1.9341-.1175-3.8927.5331-5.871,0-.6626-.2863-1.132.3787-1.89,0-.568-.2864-1.1359.3786-1.8932.0946-.2816-.0946-1.5144-.5679-.8518-1.2305.3786-.3786,1.42-.4733,1.3218-1.3252-.7622-3.2356.4517-6.57-.0924-9.8413-.5209-6.6088.673-13.2764-.1869-19.9694-1.163,2.2689-3.07,4.2406-4.3574,6.5321-1.4778,1.278-2.0122,3.5516-3.5031,4.9214-1.6529,3.71-3.4253-2.2349-4.83-3.2145-1.1482-1.5146-2.0474-3.2252-3.5937-4.3575a8.4227,8.4227,0,0,0-1.8957-2.837c.025,9.4907-.0123,19.851.1865,29.2551,1.8887,1.0306.9386,2.5529-.9468,2.0824C268.3308,146.0016,275.529,147.1837,274.9809,140.7305Z" fill="#fff"/>
            <path d="M343.0417,145.6525c-5.0249.3631-9.7751-.0516-14.8608-.0994-1.0942.3865-10.6234.9041-6.5346-1.3225.9642-1.6778.1454-3.73.5685-5.59-.5561-1.5571.1564-3.5163-.0951-5.1153-.1335-3.9441-.0957-7.746-.0006-11.6449a4.79,4.79,0,0,1,.1929-2.4572,1.8668,1.8668,0,0,1-.0945-1.8932c-.3323-4.47-.1265-9.0255-.0953-13.4467-.2085-2.3035.8743-5.5959-1.3249-7.0989-1.0035-1.5323,6.535-.8078,7.3858-.7577.3788,0,.5638-.3784.9429-.3784s.5679.3786.9465.3786a121.0556,121.0556,0,0,1,12.9731-.0948c1.5976-.1929,3.2388.0656,4.825-.0941.6654-.2843.4757,0,.8548.3782a23.7214,23.7214,0,0,1,.0952,8.8062c-.0006.284.4755,2.1771-.4739,1.6092-1.6925-2.0782-3.2412-1.2031-5.5848-1.4219-2.7159.2573-5.4212-.2542-8.14-.0027-1.2338.1889-3.5022-.7577-2.56,1.3248.4761,1.3218-.2816,2.65-.0946,3.9755a24.75,24.75,0,0,0,.1893,3.7862c.1893.4756-.7573,1.3252,0,1.5145,3.3622-.1534,6.8166-.2543,10.2227-.2843,1.0183.3128,1.2468-1.1565,2.0853-1.3282-.1893,0,.9465.1893.7573.0947a38.8645,38.8645,0,0,1,.0006,9.37c.6115,2.4534-.4656,3.8562-2.1777,1.3252a53.084,53.084,0,0,0-7.3865,0c-1.3627.1409-3.9751-.8892-3.6,1.3252.0857,2.8405-.1674,5.5829,0,8.4243-.0952.4733-.2822,1.6091.2862,1.6091,2.0622-.5078,3.9852.0943,5.9628-.2813,3.3958-.027,7.2694,1.1779,10.0335-1.1335.8519-.7575.4733,2.1768.4733,2.4608a14.3662,14.3662,0,0,1,0,5.6788C350.29,147.5855,345.4765,145.3456,343.0417,145.6525Z" fill="#fff"/>
            <path d="M355.2432,97.1787c-1.8475-2.2866,7.28-.4949,8.0446-1.1337.8977.4258,1.3988-.1644,2.2719,0,1.42.5683,3.3129-.5676,4.7327,0a24.219,24.219,0,0,1,8.2365,1.4194c5.8935,2.29,7.1928,10.0934,6.6268,15.81-.0925,6.1039.4,13.89-5.5824,17.609-1.0445.476.284,1.609.3787,2.2716a2.9977,2.9977,0,0,0,.9465,1.7984c1.0412,1.1359.7535,2.745,1.7984,3.9755,1.2306,1.4237,1.42,3.6,2.65,5.1161.2863.4733,1.6129,1.7985.2863,1.7985-3.5815-.17-6.9224.4533-10.4163-.1-1.5151.6445-3.3952-.0894-1.4169-1.42,1.41-.9916-.5157-1.6571-.5685-2.8395-1.0957-1.6695-1.4268-3.7747-2.5582-5.3008-.19-.3785,0-.6624-.0927-1.041-.1893-.284-.5679-.3787-.6659-.6626-.42-1.9748-1.344-1.9068-3.0292-1.8966-1.1356-.19-.3784,2.5554-.3784,3.1233-.0431,2.6788-.2667,5.2132-.3789,7.8564.3789,1.0412,2.7453,1.7984.4736,2.2717a10.1708,10.1708,0,0,1-3.7834,0c-2.49-.5115-5.2153.3443-7.667-.0971-.284-.1893.2839-1.1359.3786-1.3252,1.7227-2.8048.5066-7.2246.6634-10.5061.7545-2.0691-.2355-4.056.0962-6.061.0782-2.5424.1419-5.1811.0007-7.6712.0379-5.541.2025-11.0595,0-16.5685-.0946-.4761.4733-1.1358.1893-1.6134-.1893-.3743-.4761-.5637-.1893-1.0412A3.0849,3.0849,0,0,0,355.2432,97.1787Zm12.5949,26.2242c2.9061.2188,6.6588-.9607,7.0989-4.262.6628-1.1357,0-2.4609.19-3.5968a6.5567,6.5567,0,0,0,.0916-3.6938c.2424-3.4949-1.5434-6.1193-5.2039-6.156-.665-.0927-3.6911-.4737-3.7891.1889.1678,2.4364-.318,5.1415-.0006,7.483a11.7274,11.7274,0,0,1-.0939,5.3006c0,.3787.3785.4733.3785.9466s-.4761.6626-.2863,1.2305c.1893.8519-.1893,1.7038,0,2.4611C366.8905,123.3059,367.27,123.1208,367.8381,123.4029Z" fill="#fff"/>
            <path d="M408.1588,146.6c-7.6261-.49-12.8347-2.6655-15.2388-10.3215-.358-4.0074-.2955-7.9509-.4733-11.8316.0575-1.4856.3207-8.6555.1887-10.3245a5.5032,5.5032,0,0,1,.0954-3.31c-.74-2.8295.9673-5.7476,1.3258-8.526l.568-.7573c4.3325-5.8691,11.75-6.4518,18.46-5.8738,10.0771-.4911,15.2574,8.8887,13.6342,17.9924a163.2852,163.2852,0,0,1-.28,23.29c-1.5377,3.004-2.6415,6.2755-6.1569,7.3856C416.6221,146.4885,412.1783,146.4708,408.1588,146.6Zm8.8029-35.5051c-.5739-2.8-2.3715-5.7966-5.6829-5.2983a6.5417,6.5417,0,0,0-7.2882,2.178c-2.7649,4.9-1.1888,10.5885-1.6068,15.9025.4423,4.294-1.0142,11.29,4.8306,12.213,14.5814,3.1691,8.7554-16.6513,9.7492-24.9952Z" fill="#fff"/>
            <path d="M438.0665,146.41c-7.0786-1.59-6.8551-12.0944.3842-13.1634C448.8955,132.7225,448.23,147.6606,438.0665,146.41Z" fill="#fff"/>
          </g>
          <rect width="549" height="170.3793" fill="none"/>
        </g>
      </g>
    </g>
  </g>
</svg>
