<svg xmlns="http://www.w3.org/2000/svg" viewBox="0 0 761 236.1724">
  <g id="Layer_2" data-name="Layer 2">
    <g id="Layer_1-2" data-name="Layer 1">
      <g id="Layer_2-2" data-name="Layer 2">
        <g id="Layer_1-2-2" data-name="Layer 1-2">
          <g>
            <path d="M198.1624,98.4373c-.7493-7.1285.2716-14.5161-.2625-21.6517-.2623-.6561.2625-1.1809.2625-1.8323a15.3116,15.3116,0,0,1-.3935-2.6242c.5924-1.1977.2233-2.17,0-3.4114,1.0162-4.4812-.4351-9.5278.3939-13.9079,0-.5248-.6559-1.05-.2623-1.7057,1.0957-4.0057-.9819-8.36.1312-12.3341.3936-.7872-.1312-1.8369,0-2.62.1312-.5248-3.2867-3.8122-1.05-3.8122,4.5216-.0077,9.08-.0139,13.5143.1353,1.3069-.5256,1.4433.6552,1.8323,1.4425,4.5385,11,9.5175,21.7924,14.3055,32.805-.311-10.1866.0075-20.3674-.0044-30.4407-.2369-1.7035-2.513-1.8115-1.5777-3.68.66-1.3068,4.0672.2624,5.2533-.1279a4.4526,4.4526,0,0,1,2.62,0c2.435.3569,13.8711-1.3312,7.0892,3.0191.7442,5.3828.0169,11.0467.3943,16.5287-.33,12.8109.2316,25.7391-.2671,38.5749.1769,2.5908.0373,5.4837.2618,7.8737.5255.3936,1.7063.7872,1.8375,1.4433.6561,2.0993-5.117,1.312-6.1667,1.312-1.2285.3934-2.4037-.4947-3.5426.131-.7872.3972-1.5745-.3934-2.6241,0-1.1809.397-2.493-.3936-3.805,0-.5249.1345-1.5745-.5248-1.5745-.9184.9529-1.91,2.9517-1.2914.66-3.8052-1.3118-1.1846-1.443-3.6769-2.23-5.2533-.9856-2.1686-2.577-4.0133-2.7608-6.424-1.4756-1.44-1.6148-4.2016-2.6235-5.9041-1.7587-1.9758-2.4729-5.0389-3.543-7.3474-.2618-1.8372-1.8363-3.0181-1.8363-4.855-.1312-.5248-.7872-.2624-.7872.1312l.2624,1.3121c.5248,1.05-.2624,1.5745,0,2.6242.263,3.6693-.0424,7.2055.1314,10.89a3.6522,3.6522,0,0,1-.1314,2.6242c-.5248.7872.3936,1.7057.1312,2.62-.5325,2.8832.4988,5.5548-.3905,8.3991,0,.5249.525.7873.525,1.3121s-.3969.7873-.3969,1.3121c.1312-.2624,1.71,1.4433,1.8369,1.5745.8337,1.2657-.8731,2.1875-1.9681,1.7053-5.0308-.2837-10.2656.3532-15.0921-.266-.5027-.7984,1.1627-2.6676,1.5777-3.0177C197.8994,99.6221,198.2969,99.0973,198.1624,98.4373Z" fill="#fff"/>
            <path d="M272.2989,104.4787A18.6864,18.6864,0,0,1,254.4508,85.97c.5745-2.6581-.3631-4.9769-.0009-7.6094.3939-1.05-.1309-1.1809-.1309-2.0947,0-1.05.5248-1.1855.1312-2.2358.3324-2.4911-.6784-5.3375.1308-7.8685-.5271-2.3694.05-5.0277-.1306-7.61-.571-7.9139.937-17.3012,8.66-21.3826,8.0971-5.173,29.6278-5.1429,35.0393,4.0622,6.847,9.168,2.7856,22.5147,4.0688,33.3353C303.9136,97.5955,296.08,106.5947,272.2989,104.4787ZM286.7317,51.72c-4.0117-5.7752-13.78-5.3047-17.3246.5249-1.8773,5.178-1.3434,10.6125-1.18,16.0073.4558,7.262-2.9471,19.538,6.56,21.9171,10.4526,3.318,15.3334-7.1547,13.5152-16.14-.2025-7.2483,1.1915-15.4472-1.5687-22.31Z" fill="#fff"/>
            <path d="M373.9843,103.2933c-6.97.5091-13.5422-.0744-20.5988-.1353-2.6438.7957-5.3257.4414-8.0036.13-2.2384.6424-3.5826-.7036-1.0495-1.9679,1.3363-2.32.2015-5.1688.7878-7.7448-.7739-2.1508.2235-4.8734-.1319-7.0886-.1818-5.4673-.1353-10.74-.0007-16.1411a6.7148,6.7148,0,0,1,.2634-3.4113c0-.5249-.5252-.7873-.5252-1.3121,0-.3936.3937-.7873.3937-1.3121-.461-6.1934-.1753-12.5092-.1316-18.6366-.2881-3.1949,1.21-7.7456-1.8366-9.8324-.656-1.57,1.4479-1.05,2.2358-1.05a26.8905,26.8905,0,0,1,8.0036.0005c1.3592-.5868,1.2406-.6352,2.6242,0a100.7959,100.7959,0,0,1,14.0391-.1284c3.5317-.3464,7.1158.1443,10.6278-.1343.9184-.3938.656,0,1.1808.5247a32.8407,32.8407,0,0,1,.136,12.2061c.7445,3.3793-.9438,2.5039-2.4939.5254-2.5762-.6409-5.8241-.1026-8.5283,0-2.9088-.7022-5.7738-.2084-8.66-.2616-1.7057.2622-4.8547-1.0447-3.5426,1.8366.4156,3.55-.6314,7.16.1285,10.7649-.921,3.149.3016,2.0376,2.6237,1.837,3.87.3033,7.6895-.241,11.552-.1316,1.402.4317,1.7347-1.5964,2.8865-1.84-.2624,0,1.3121.2624,1.05.1345,1.0237,3.3461-.1962,6.8863.2622,10.2341a4.7155,4.7155,0,0,1-.2626,2.7553c.8112,3.466-.5565,5.3545-3.0174,1.837-4.0364-.4931-8.3321.1986-12.4693-.1342-3.975-.6281-2.6857,2.5782-2.4931,5.2534-1.0036,2.76-.0351,5.5947-.2615,8.3991-.1352.656-.3976,2.2305.3929,2.2305,2.016-.0984,4.1072-.7783,5.91-.1314,1.45.1037,2.931-.4954,4.461-.1266,4.102.0064,8.5331,1.161,11.8086-1.7013,1.1848-1.05.6561,3.0174.6561,3.4111a19.911,19.911,0,0,1,0,7.8723C384.0316,106.1552,377.4044,102.7945,373.9843,103.2933Z" fill="#fff"/>
            <path d="M401.7955,67.6024a.4055.4055,0,0,1,.1313.2624c-9.4882-5.97-10.5669-20.14-2.4854-27.5528,3.2521-2.52,6.7415-4.7119,11.0212-5.3791a8.1456,8.1456,0,0,0,3.0175-1.0536c3.3184.0317,6.3468-.3656,9.5781.2628,1.9725-.192,3.8957,1.1715,5.9045,1.4421a17.18,17.18,0,0,0,4.33,2.8912c.787.6564.9222,1.5748,1.4431,2.1.66.7872,1.1854.5248,1.5744,1.5745.3976.782,1.3121.782,1.5745,1.9681.2624.656,1.1809.7872,1.312,1.7057,0,.9223.7873,1.5744.6561,2.4929-.9754,2.0853-3.9971,2.7969-5.9,4.2042-.7876.5245-1.3123,1.1805-2.2367,1.3117-1.56.6323-2.9715,2.8379-4.8559,2.7547,0,0-.1312-1.5745-.1312-1.8369,0-1.05.5248-1.3121-.1312-2.23-1.3533-1.6578-3.2761-3.6265-5.3749-4.0676-.9224-.3974-1.4479-1.3119-2.7613-1.05-3.0222-.0093-6.2416.249-8.5286,2.4925-1.5749,2.3116-.4674,5.8941,2.3665,6.4335,10.3211,5.5906,28.5266,9.9949,29.6551,23.8781.2218,2.21.6018,3.91-.2674,6.0318.4512,2.5876-1.5577,4.3478-1.9679,6.6915a12.5356,12.5356,0,0,1-3.6734,5.1216,3.5679,3.5679,0,0,1-2.3577,1.9683c-1.9791,2.029-5.427,4.0657-8.4011,3.9419-2.85.04-5.454,1.6259-8.3974.786a33.0677,33.0677,0,0,1-11.1571-2.4923c-1.4588-.7526-3.3857-2.7965-4.9858-3.0132-1.6836-1.6345-2.6878-3.5287-4.33-4.9858-1.79-3.2-2.3186-5.1221,1.5748-6.9578,1.9343-.7045,9.4354-9.1446,10.365-6.1674a4.8443,4.8443,0,0,0,.3968,4.0681c4.411,7.2372,18.8486,7.7856,17.3111-2.8854.2621-2.3616-4.5873-3.6736-5.6383-5.2534C414.2837,74.1006,407.2108,72.0718,401.7955,67.6024Z" fill="#fff"/>
            <path d="M446.5325,47.9148c-.0651-2.7918-.8572-5.6008-.1275-8.394-.4394-1.7448-.7829-6.2961,2.1035-4.5921,6.3151-.7042,12.9215.1706,19.292-.2624a77.0766,77.0766,0,0,1,11.0215.2614c3.5742-.9789,7.5794-.057,11.159-.3958,3.42-.91.9,10.6231,1.706,12.8591.0765,3.1567-1.3151,2.47-3.0182.7873-1.6686-1.4426-5.2437-.6261-7.2162-.263-1.53-.5526-2.6453.3973-4.1981-.1343-.5248,0-1.8369-.2624-1.312.7872.2383,3.4917-.6534,7.197,0,10.6324.0215,2.6911-.72,5.557.132,8.266-.2077,1.5116-.8681,2.6215,0,3.9361a14.2221,14.2221,0,0,0-.394,4.4592c.8624,7.9987-.2538,16.44.1309,24.5415,3.4072,3.984,1.8126,3.5937-2.4929,3.0176-.9182-.131-1.7055.3938-2.6239.3938-.7873.1345-1.57-.7872-2.2305-.3936-2.5293,1.0211-5.4107-.343-8.1316,0-1.05-1.1848,2.3618-2.7553,1.8369-3.6738-.9184-1.4433.2624-3.805,0-5.5107-.1339-1.83-.2141-3.3865-.2618-5.2443.4512-13.7176-.0315-27.5838.13-41.1977-4.1546-.5166-8.4478.6694-12.6-.2624-.7521.735-1.2055,2.6662-2.6281,2.2351A9.1256,9.1256,0,0,1,446.5325,47.9148Z" fill="#fff"/>
            <path d="M492.0646,101.1986c6.9953-20.4154,11.2753-41.3211,17.1928-62.08,1.0416-1.2364.1152-1.9094-.661-2.8868a.9828.9828,0,0,1,1.1852-1.4478,92.4655,92.4655,0,0,1,9.84.1348c2.1736.2657,9.01-1.8693,6.5605,2.2265-1.181,1.9684.66,4.466,1.05,6.4328,1.7349,7.1483,3.4156,14.155,5.5146,21.13,1.6044,4.6491,2.1682,9.9134,3.81,14.4393.88.9494.0855,2.4137.9227,3.4165,1.08,3.4978,1.9075,7.1131,2.76,10.6245,1.1611,2.4444.8025,5.5567,2.361,7.7414,5.8261,4.9407-4.6319,1.5429-6.6913,2.755-1.5746.9188-3.6773-.5245-5.1172,0a3.8206,3.8206,0,0,1-3.1489-.2628c-1.4434,0-.7821-.5244-.2625-1.5741,1.0045-1.4708,1.4739-3.4887.1349-4.9859-.787-1.1848-.1309-2.7612-1.0494-3.94-.9185-1.05-.3936-2.2305-.6561-3.28-2.039-3.3316-11.7052.0821-15.6132-1.4441-.7876-.1336-.5252,1.8331-.6564,2.4938-.313,1.8657-2.0926,3.1983-1.5756,5.2483.6008,1.7523-3.0329,4.5281-.394,5.2522,3.1148,3.7621-2.9113,2.0269-4.7193,2.4922-3.6336.2139-7.2538-.2845-10.89,0C490.2548,103.6836,491.4105,101.852,492.0646,101.1986ZM515.6818,75.213c1.61.0492,3.8883.4113,5.5166.5248,1.312.1313.1311-1.1847,0-1.4478-.2371-4.9562-3.21-9.4036-3.28-14.4328a.5063.5063,0,0,0-.7874.2625c-.398,4.584-2.4312,8.733-3.28,13.2518-.9676,2.7136-.7256,2.3677,1.8344,1.8415Zm5.117-61.42a3.4454,3.4454,0,0,1,2.6242,0c3.9063-1.3634,2.3157,2.0641.5245,3.5421-2.1607,2.1527-3.2606,7.6415-6.9531,6.2986-.7878-.263-3.0183.6594-2.6207-.919.3311-2.8857.5122-5.7562,1.8314-8.3971.2685-1.5753,3.6832-.525,4.599-.525Z" fill="#fff"/>
            <path d="M553.8623,63.0088c-13.4276-23.0357,18.936-37.344,36.2254-24.5425,1.404,1.5739,3.7507,4.0076,4.7236,5.904.39.5248.9185.7872.9185,1.4432,1.244,1.9713,1.1081,3.1612-1.05,4.1987a85.2551,85.2551,0,0,1-8.0026,4.9855c-1.05,1.3124-3.677,2.7556-3.4112,0,1.1441-6.7439-10.46-9.1106-15.0957-6.2984-7.6469,6.0322,4.96,9.4066,9.059,11.6769,2.9094.7584,6.3216,1.9611,8.5285,4.0681a31.4522,31.4522,0,0,1,6.2977,3.6741,4.866,4.866,0,0,0,2.366,2.2342,3.8394,3.8394,0,0,0,1.5747,2.23,19.0527,19.0527,0,0,1,2.4927,13.6457c-.2149,2.3518-1.1876,4.1922-2.1038,6.4326a15.6962,15.6962,0,0,1-4.0681,6.0346c-11.51,10.5079-35.7458,7.0886-40.9477-8.5324,2.0176-2.38,5.5932-4.0483,7.7413-6.5611,1.5042-.8939,3.9694-3.8579,5.7734-3.6735,0,0,.2624,2.6241.2624,2.7553-.1311.66-1.05,1.1855-.3936,1.8369,1.2157,1.0819,1.7785,2.8813,3.28,3.5472,4.2382,2.9963,11.7614,3.8161,14.4374-1.4433,3.3566-8.8177-11.3233-11.6852-16.9206-14.6938A28.4334,28.4334,0,0,1,553.8623,63.0088Zm4.33,4.4611a3.4106,3.4106,0,0,1-.7873-.6561,3.35,3.35,0,0,1,.7879.6541Z" fill="#fff"/>
            <path d="M279.8394,167.9743c-13.4064-23.0463,18.8986-37.3393,36.2293-24.5425,1.3846,1.5536,3.7467,4.012,4.72,5.9073.39.5248.9185.7872.9185,1.4432,1.2481,1.9726,1.1123,3.1567-1.0462,4.1987a84.8848,84.8848,0,0,1-8.0085,4.9855c-1.05,1.3124-3.677,2.7556-3.4146,0,1.1484-6.7411-10.4546-9.113-15.0884-6.2984-7.6531,6.0262,4.9592,9.4083,9.053,11.6769,2.9144.761,6.3243,1.9607,8.5331,4.0681a31.4439,31.4439,0,0,1,6.2938,3.6741,4.8358,4.8358,0,0,0,2.3666,2.2342,3.8376,3.8376,0,0,0,1.5687,2.2305,19.0236,19.0236,0,0,1,2.4948,13.649c-.2194,2.35-1.19,4.191-2.1032,6.4326a15.7193,15.7193,0,0,1-4.0681,6.0313c-11.51,10.504-35.7557,7.0977-40.9483-8.5291,2.0141-2.3854,5.5939-4.0453,7.7393-6.5611,1.5082-.8964,3.9672-3.8588,5.7793-3.6735,0,0,.2625,2.6241.2625,2.7553-.1352.66-1.05,1.1855-.3976,1.8369,1.2218,1.0775,1.7781,2.8818,3.28,3.5472,4.2421,2.9949,11.7582,3.8161,14.4408-1.4433,3.3467-8.82-11.3331-11.6869-16.9344-14.6938A28.2824,28.2824,0,0,1,279.8394,167.9743Zm4.33,4.4611a3.3939,3.3939,0,0,1-.7872-.6561,3.3641,3.3641,0,0,1,.7885.6541Z" fill="#fff"/>
            <path d="M352.5287,209.4443a18.688,18.688,0,0,1-17.8455-18.5054c.5729-2.6579-.3586-4.9761-.0009-7.6094.3978-1.05-.1309-1.1809-.1309-2.0947,0-1.05.5248-1.1855.1312-2.2358.3422-2.4915-.69-5.34.1308-7.8685-.5276-2.37.0554-5.0275-.1306-7.61-.5668-7.9172.9391-17.2981,8.6615-21.3859,8.74-5.0426,20.2468-3.8708,29.663-.9233.9227,1.2175,2.7964,1.3823,3.67,2.6241a9.5576,9.5576,0,0,0,2.7547,3.149c5.22,11.3019,1.7977,24.1811,3.1533,36.0906C383.9484,204.4478,372.9241,211.4971,352.5287,209.4443Zm14.4327-52.7583c-4.0058-5.7759-13.7822-5.304-17.3193.5248-1.8769,5.1815-1.3541,10.6094-1.1845,16.0073.4548,7.2636-2.9477,19.5388,6.56,21.92,10.4539,3.317,15.3422-7.1515,13.5139-16.1395-.2033-7.2491,1.1948-15.4516-1.5687-22.313Z" fill="#fff"/>
            <path d="M432.9637,197.368c-.1667,2.9775.449,5.69,0,8.7954,0,.7814.5253,1.5693-.3932,2.0947-1.9478.6149-4.5088-.6793-6.4324.1312a4.2633,4.2633,0,0,1-2.8865-.1312c-1.9491-.5061-3.78.94-5.7731.3967-1.7669-.7169-3.83-.4755-5.7732-.3936-4.3978.3183-8.91-.1424-13.383.2635-2.3885-.2343-6.7169.8057-3.145-2.8823,1.364-.3975.2811-4.97.2658-6.3016a103.4973,103.4973,0,0,0,.1315-10.8863c-.26-8.3281.5779-16.809-.0038-24.9313.3974-1.9483.0709-3.7569.2621-5.6419.3979-.656-.2621-1.9681-.2621-2.62.4781-2.0556-.2621-3.95.3934-5.9056,0-.7873-.659-1.05-.3934-2.0994s.7873-4.461-.2624-5.117c-2.9095-1.8146-1.1975-2.9374,1.5746-2.6269.9184-.3942,1.5744.3964,2.6241.1339A3.3028,3.3028,0,0,1,402,139.5117c.99.9215,10.1178-1.35,9.1846,1.0528-.53,2.9545-2.7261.4554-1.5783,4.33-.6142,10.9563.2166,21.8471-.1349,32.799.0719,5.4454.0677,10.817-.1274,16.2749-.3168,1.3666.0848,1.695,1.443,1.1806,3.281.1479,6.7121-.0046,9.9723.1311.3975.1355.7873.3979,1.312.1355,2.4823-1.0129,5.1632.087,7.7412,0-.5248,0,.7814-.923.7814-.923C432.9528,191.6409,433.1535,195.2932,432.9637,197.368Z" fill="#fff"/>
            <path d="M434.2705,206.1641c3.06-5.9332,3.4237-13.1151,5.7738-19.299.9581-4.3713,2.8544-8.6467,3.411-13.121,2.0928-6.3174,3.44-12.9442,5.2471-19.55,1.5557-3.089,1.4175-6.8488,2.7593-10.1073.2621-.6561.9221-1.181.2621-1.7058-3.117-3.4931,1.1665-2.2344,3.28-2.8908,1.1853,0,1.8367.5245,3.0176.2621,1.3121-.5189,2.4988.5248,3.805.1312,2.1835.2669,9.0112-1.8653,6.5663,2.23-1.1855,1.9684.656,4.466,1.05,6.4295,1.7264,7.1491,3.4117,14.1547,5.5133,21.1263,1.6,4.6514,2.1669,9.9139,3.8091,14.4393.8768.9471.0905,2.4127.9188,3.4165,1.0865,3.4966,1.9069,7.116,2.76,10.6277,1.16,2.4466.806,5.555,2.361,7.7447,5.8358,4.9388-4.6257,1.5442-6.6927,2.755-1.57.9187-3.6739-.5245-5.1125,0a3.8206,3.8206,0,0,1-3.1489-.2628c-1.4434,0-.7873-.5245-.2625-1.5741,1.0022-1.471,1.4718-3.4918.1309-4.9859-.7817-1.1847-.1309-2.7612-1.0441-3.94-.9224-1.05-.397-2.2305-.66-3.28-2.0381-3.3316-11.7027.0822-15.6093-1.444-.7876-.13-.5252,1.8331-.66,2.4937-.3082,1.8667-2.0885,3.1993-1.5781,5.2483.6015,1.7505-3.0333,4.532-.3941,5.2522,3.1148,3.7629-2.9124,2.0265-4.7232,2.4922-3.6349.214-7.25-.2845-10.89,0C432.4536,208.6524,433.6106,206.8175,434.2705,206.1641Zm23.6212-25.9855c1.6079.05,3.8849.4115,5.5107.5248,1.312.1312.1312-1.1848,0-1.4479-.2406-4.9559-3.2121-9.4038-3.2839-14.4328a.5058.5058,0,0,0-.7875.2625c-.3891,4.5846-2.43,8.7353-3.2789,13.2519C455.0816,181.0563,455.3315,180.7015,457.8917,180.1786Z" fill="#fff"/>
            <path d="M505.6465,209.31c-9.8557-2.3861-9.5992-16.5633.525-18.2426,5.6028-.6961,10.8763,4,10.4979,9.5817.8034,3.7711-3.2853,6.5017-5.9094,8.3974-.7877.5246-2.2309.1309-3.1494.1309C506.8253,209.1812,506.3,209.7067,505.6465,209.31Z" fill="#fff"/>
          </g>
          <rect width="761" height="236.1724" fill="none"/>
        </g>
      </g>
    </g>
  </g>
</svg>
