<svg xmlns="http://www.w3.org/2000/svg" viewBox="0 0 415 134">
  <g id="Layer_2" data-name="Layer 2">
    <g id="Layer_1-2" data-name="Layer 1">
      <g>
        <path d="M23.7,56.4a43.1531,43.1531,0,0,0,.2,7.1c-.1.1-.1.1-.2.1,4.4543,3.43-4.0878,1.78-5.8,2a7.7891,7.7891,0,0,1-3.4,0c-1.7328.2882-1.0834-1.2008-.1-1.8.6617-1.9254.3421-4.4,0-6.4a1.996,1.996,0,0,0,0-1.9c.4406-1.3371-.0379-3.0006,0-4.4.5329-7.0839-.0553-14.1613-.1-21.4.5908-2.3022-.3029-4.64.2-7,.2-.8-.5-1-1-1.4-.9269-.8484.4926-1.3659,1.2-1.5,5.5926.4186,11.5317-.3265,16.9.3995a1.647,1.647,0,0,1,1.7.4007c1.103-.2637,1.6153.7655,2.6,1,2.7472,1.13,3.7925,3.7738,4.6,6.4a15.5851,15.5851,0,0,1,.5,4.4,2.5843,2.5843,0,0,1,0,2.3c.425.8559-.1345,2.2475-.1,3,.7,1.4,0,3.5-.2,5A10.4827,10.4827,0,0,1,29.5,53.5a17.7,17.7,0,0,0-2.3,0C24.5654,53.61,22.7786,52.8874,23.7,56.4ZM25,45c1.2063-.1944,2.7692-.2612,4-.4.3-.2.4-.6,1-.8.5-.1.6-.4.9-.9.3-.3.8-.3.7-.9.008-.9728.6179-1.8758.3-2.9a7.5719,7.5719,0,0,0-.1-2.1c.1768-1.1036.43-1.3886,0-2.5.17-.92.2914-1.3552-.3-2.1a3.5109,3.5109,0,0,0-1.1-2.2c-.9613-1.8127-4.557-1.4812-6.4-1.3-.7-.2-.7,1.4-.6,1.9.5394,4.6906-.4009,9.6036.2,14.2C24.3,45,24.5,45.2,25,45Z" fill="#fff"/>
        <path d="M46.7,21.3c-.3-.3.2-1.4.6-1.4.3,0,.5.3.9.3.9945-.5963,2.3228.206,3.4-.1h5.2c1.6518-.44,1.7735.96.6,1.7-1,.3-.3,1.4-.3,2.1-.3847,1.4258.3,3.1236,0,4.7a26.9316,26.9316,0,0,0,0,4.7c-.6065,1.1542.1226,2.3117-.2,3.5a1.7649,1.7649,0,0,1,0,1.8c.4288.498.2932,5.5069.3,6.2-.1968,1.6583.1428,3.4328-.3,4.9-.3.7.3,1.3.4,2a6.9629,6.9629,0,0,0,.5,2.5,2.4475,2.4475,0,0,1,.9,1.5c3.7251,2.1983,10.0266,2.3314,11.4-2.8.6986-1.1072.0012-2.5765.4-3.6-.3968-1.092.2013-2.3475-.1993-3.4-.3216-1.2114.3946-2.51-.2007-3.7.729-1.7888-.399-3.78.1006-5.6.3-1-.2-1.7-.2-2.6.1018-1.6816.6242-3.2849.1-4.9A1.7957,1.7957,0,0,0,70.1,27.3c-.2824-2.1,1.2218-5.0032-.9995-6.3-1.8445-1.99,10.5313-.9959,11.3-.8.9.9-1,1.4-1.1,2.4.1424,4.5566.2164,9.2495-.1,13.9a39.2929,39.2929,0,0,1,.1,7.6c-.07,1.3166.5263,2.63.1,3.9,0,.6.3.8.1,1.4-.5309,1.3605.2624,2.9646-.2,4.3-.087,3.5523-1.05,7.2507-4,9.5-1.7817.6486-3.262,2.418-5.3,2.3-2.86.3037-5.879,1.1627-8.8.7-1.5706.3183-3.2375-.3981-4.8-.7-.3-.1-.6.1-1,0-.3-.2-.3-.5-.7-.6-1.0791-.4848-2.0963-.3873-2.9-1.5a12.9144,12.9144,0,0,1-2.9-3c-.1927-2.1816-1.6716-4.4023-1.6-6.8,1.2951-6.3471.16-12.563.6-18.8-.1128-2.6614.2586-5.4185-.2006-8.1a5.3229,5.3229,0,0,0,.3-2.3C48.1573,23.0982,48.2341,21.7774,46.7,21.3Z" fill="#fff"/>
        <path d="M86.6,28.9c-.0543-1.8424-.6609-3.7756-.1-5.6-.3039-1.059-.6191-4.2606,1.3-3.1,1.5688.0805,2.6175-.5283,3.9-.1,2.93.12,6.038.1175,8.9.0007,4.82.0124,9.8084-.0431,14.6-.1005,1.9017-.6121,1.06,5.62.9,6.7.0423.6813.6611,3.2525-.5,3.2a3.25,3.25,0,0,1-1.3-1c-1.5208-1.2871-4.1.222-5.8-.3-.3,0-.6.3-1,.3-.3955-.0446-2.0776-.7066-1.8.3.2005,1.7982-.3747,3.645-.1,5.5-.2457,1.1665.5993,2.1027-.1,3.2a10.9842,10.9842,0,0,0,.3,3.8c-.1356,1.033-.4732,1.638,0,2.6-.6185,1.5867-.0424,3.1853-.1,4.7-.5,1.1.2,2.4.1,3.5-.079,3.7383-.347,7.3237-.2,11,2.2925,2.6143,1.1266,2.4515-1.7,2-.6-.1-1.1.3-1.7.3-.5.1-1-.5-1.5-.3-1.0758.775-2.455-.137-3.6,0a4.8173,4.8173,0,0,1-1.7,0c-.7-.8,1.6-1.8,1.2-2.4-.6-1,.2-2.5,0-3.7-.1-.6.1-1.1-.2-1.7-.2-.5.3-1.1,0-1.7.5014-3.6287-.1724-7.3938.1-11.1.3-.6-.2-1.1.1-1.7.2-.7-.3-1-.2-1.7.4619-1.1476-.3092-2.5252.2-3.6a3.209,3.209,0,0,0-.2-1.7c-.1-.7.3-1.1.1-1.7-.3-.6.1-1.5.1-2.1a17.9127,17.9127,0,0,1-.1-3.4c-2.7264-.3871-5.6076.5011-8.4-.2-.531.4955-.6795,1.6922-1.7,1.5C86.7,30,86.6,28.9,86.6,28.9Z" fill="#fff"/>
        <path d="M139.2,20.8c.8828-1.7958,4.7255-.2764,6.6-1.0006.8444.2664,6.6221-.0333,4.3,1.6007-.2.1-.6.9-.6.8.9939,1.5485,1.7567,4.5307,3.1,5.7a7.9836,7.9836,0,0,1,1.5,3.1c.2315,1.521,1.1314.99,1.2-.2.3-.7.7-1,.8-1.7,1.3446-1.9162,1.8446-4.4262,3.3-6.3.8-.5.3-.5-.2-1-3.2259-2.3021,4.6659-1.6838,5.8-1.5,1.3182.1063,3.9015-.749,4.7.3.3.8-.1.7-.5,1.2-.602.6569-.9193,1.69-1.5,2.4a51.9774,51.9774,0,0,1-3.2,7.6c-.8927,1.419-1.1825,3.4144-2,5l-1.7,3.5c-.4708,1.0167-.6025,2.5633-1.5,3.3-.0193,3.6342-.7238,7.6215-.1009,11.2.1724,1.0083-.6153,2.3313-.0991,3.4.0713.8444-.3794,1.28,0,2.1.014,1.4012-.53,3.3138.8,4.3,1.6822,1.8424-2.4414,1.239-3.4,1.5-2.4334.0025-4.8977.0371-7.3-.2-1.6,0,0-1.4.6-1.7.4-.2,0-1.3,0-1.7a3.2838,3.2838,0,0,0,.1-1.7c-.3071-2.4582.244-4.91-.2-7.4.3426-3.3822.5588-7.4462-.6993-10.8-1.43-2.5221-2.0825-5.3983-3.7005-7.8-.2-.3.1-.6,0-1-.2-.3-.6-.3-.7-.7-.3434-.5851-.7293-1.9178-1.1-2.5-.244-1.7791-1.5227-3.4455-2.1-5.2a12.3732,12.3732,0,0,1-1.1-3.1C140.2,21.9,139.1,21.2,139.2,20.8Z" fill="#fff"/>
        <path d="M185,66.4a12.3161,12.3161,0,0,1-11.8-12.3,6.2122,6.2122,0,0,0-.0007-2.6c.4-.705-.4492-1.5539,0-2.5.3-.7-.1-.8-.1-1.4,0-.7.3-.8.1-1.5.2537-1.6271-.5145-3.6023.1-5.2-.4936-1.5352.0491-3.2989-.0994-5A24.5177,24.5177,0,0,1,173.8,28c1.0135-1.8976,1.6787-4.1567,3.7-5.3,5.8688-4.5085,14.3807-3.6285,21.1-1.5.5947.7852,1.8687.8647,2.4,1.7.4631,1.1123,1.8308,1.833,2.1,3,2.515,4.8094,1.3062,10.4621,1.5,15.6.0047,1.5227.4748,3.3574.2007,5-.3.9.1,1.5.1,2.4-.3679,1.2011.0457,2.5839-.1,3.8-.4166,1.048-.0888,2.5908-.4008,3.7C203.4344,65.4818,192.5776,67.69,185,66.4Zm9.6-35c-2.67-3.7574-9.2637-3.595-11.6.3-1.8723,5.75-.4426,12-1.1,18-.216,4.0111,2.5264,8.0388,6.9,7.3,5.9365.862,7.2843-6.3,6.5993-10.9C195.2507,41.3033,196.1712,35.9666,194.6,31.4Z" fill="#fff"/>
        <path d="M211,21.5c-3.2315-2.287,4.4407-1.0983,5.4-1.5.5-.2.6-.1,1,.1.757.0862,2.8948-.0423,3.7,0,1.5,0,.3,1.6-.4,1.8-.5.2-.3,2-.3,2.4.3319,1.5835-.48,3.4514,0,5,.5137.91-.4279,1.9694.2,2.8-.08.7522-.3017,1.2629.1,2-.5426,2.8642-.0356,5.4173-.1005,8.3.1578,4.29-1.5139,10.2483,2.2,13.3,2.4378,1.5906,6.509,1.8649,8.7007,0,1.5825-.8016,2.7315-4.4553,2.1-6.1.4668-7.846-.0412-15.6752.2-23.5-.7152-1.3507.6386-4.4251-1.1-5.2-1.1506-2.07,8.7322-.6781,9.9-.8,2.3474-.7987,2.03,1.093.3,2,.4162,2.74-.4734,5.4925.1,8.2.0606,3.8254-.1269,7.531,0,11.2-.5637,7.6132,2.2847,18.7222-6.1,23.1a2.3658,2.3658,0,0,0-1.8.6c-.3.1-.8,0-1.1.3-2.4827,1.04-5.5178.9125-8.2.8-3.7692.0119-7.9734-.6621-10.8-3.4a7.9346,7.9346,0,0,0-1.4-1.5c-1.3419-2.003-1.6808-4.483-2.1-6.8-.6978-3.2668.354-6.6733-.1-10a59.4809,59.4809,0,0,1,.1-7.8c-.5572-3.3864.1422-6.8112-.2-10.2-.2847-1.1546.1946-2.3005.2-3.5,0-.3-.3-.5-.3-.8A.8817.8817,0,0,0,211,21.5Z" fill="#fff"/>
        <path d="M250.1,21c-1.3961-1.807,4.6224-.6045,5.7-1.1006a1.7945,1.7945,0,0,0,1.8,0c.4,0,.8.3,1.2.1.3-.1.5-.3.9-.1,1.3.5,3-.5,4.4,0,.7.3,1.2-.2,1.8,0,2.1925.5718,5.8681.5009,7.5,2.2,4.4616,4.0575,4.8109,10.6034,4,16.3.44,1.5831-.1085,2.8412-.1006,4.4.3006.7-.0994,1.2-.0994,1.9-1.0438,2.6779-2.0272,5.9456-4.8,7.3-1,.4.3,1.5.3,2.1a2.8424,2.8424,0,0,0,.9,1.7c1.413,2.6064,2.4937,5.7083,4.1,8.4,1.8578,2.0469.0241,1.7255-1.6,1.6a18.07,18.07,0,0,1-3.9.2c-1.26-.1424-2.4361.2187-3.7-.2006-1.4256.5967-3.06-.0989-1.3-1.3.4-.5.8-.6.3-1.2-.8636-.9378-1.0163-2.188-1.8-3.2a18.5943,18.5943,0,0,1-.9-2.5,1.7118,1.7118,0,0,1-.6-1.6c-.9188-.4106-.7486-2.0339-1.6-2.3-2.7991-.4841-2.4758.4269-2.1,2.8a25.7506,25.7506,0,0,0-.1,3.9c-.0244,1.115-.4831,2.1624-.3007,3.3.3,1,2.5,1.7.4,2.1a7.7693,7.7693,0,0,1-3.4,0c-2.0939-.4834-4.9544.355-7.1-.1-.31-1.0251,1.0686-1.5945,1.1-2.6a104.8141,104.8141,0,0,1,.1-11.3c-.6-1.735.0516-3.7114-.1-5.5-.3061-5.5392.2769-11.2547-.1-16.9.1453-1.2788-.0357-2.7643.2-4.1-.2005-.3-.4-.5-.2005-1A2.6075,2.6075,0,0,0,250.1,21Zm11.6,24.1c7.3379-.045,6.4183-3.7987,7-9.4-.51-1.4147-.1654-3.1019-.8-4.5-.421-2.5113-6.1861-3.2064-7.8-2.3-.1247,3.923.02,5.9558.2,9.6005A5.9025,5.9025,0,0,1,260,40.7c0,.3.3.4.3.9A9.0984,9.0984,0,0,0,260,45,4.4194,4.4194,0,0,1,261.7,45.1Z" fill="#fff"/>
        <path d="M286.5,38.9c-3.2453-5.3262-2.6181-9.5575.7-14.6,6.4015-5.5358,16.1357-6.6378,23.2-1.7,1.1764,1.44,3.0178,3.1908,3.7,4.9.9122,1.4025.681,2.0323-.7,2.8-1.2405.9449-2.4348,1.3856-3.6,2.4-.5.3-1.4.4-1.7.9-3.7265,3.4405-1.0217-2.2557-3.4-3-2.7521-2.9038-13.0171-2.6918-9.8,3.2,1.9953,1.5741,4.8053,2.2362,6.9005,3.4993a23.5463,23.5463,0,0,1,5,2,8.17,8.17,0,0,0,2.6,1.7c1.6268.4725,2.4761,2.3216,3.8995,2.9.3.3.2.7.3.9.2.3.5.3.7.6,3.4556,5.1017,1.7783,13.2586-2.5,17.4-7.5,7.01-23.7565,4.5387-27.2-5.6.9293-1.2577,3.9026-2.7188,5.2-4.3007.9882-.6147,2.5988-2.5623,3.8-2.5,0,0,.2,1.7.2,1.8-.1.4-.7.8-.3,1.2a7.6558,7.6558,0,0,0,5,3.5c1.8325.5374,3.8053.6491,5.3-.7a2.2972,2.2972,0,0,0,1.4-1.5c1.5135-3.14-1.2683-4.9226-3.5-6.3994A14.2365,14.2365,0,0,0,297.7,46.8c-2.219-1.6368-5.2614-2.0447-7.4-3.7A48.1439,48.1439,0,0,1,286.5,38.9Zm2.9,2.9c-.2-.1-.3-.3-.5-.4C289,41.5,289.2,41.6,289.4,41.8Z" fill="#fff"/>
        <path d="M345.1,65.7c-5.9807.6179-11.9879.1282-18,.1a9.1874,9.1874,0,0,1-4.9-.1c-.8056.3432-1.6241.4945-1.5-.7-.1-.3.9-.6,1-1,.4565-1.4172.1-2.9378.1005-4.4.1079-1.199.1355-5.0167.0993-6.4-.1018-1.7577.2422-3.5079.2-5.3-.4546-.7048-.0838-1.3635-.2-2.2.0767-7.7636.2913-15.5069,0-23.2-.8889-1.1689-2.1808-2.1351.4-2.4.7,0,1.3.5,2,.3,1.613.0213,3.2811-.5915,4.8,0a6.5159,6.5159,0,0,0,2.4-.2c1.7026-.4405,3.2246.5336,4.9.1,3.4639-.0827,6.9083.07,10.3,0,.3554,2.0122-.09,4.0943-.1,6.1.2964,1.6259.899,5.4632-1.6,2.9-.8-.7-2.2-.4-3-.4a9.0965,9.0965,0,0,1-3.1.1c-.7-.3-.9.2-1.5.2-2.0908-.2-4.1557-.2538-6.2-.5-.6.2-.1.8-.1,1.1,0,.5-.3.9.1,1.4.2528.9829-.4288,1.94,0,2.9,0,.5-.2.9,0,1.4.2.7-.6,2.5-.2,3,.9054.36,2.1591-.0181,3.2-.2,2.7309-.1506,6.4266,1.0345,8.4-1.0995.9-.5.4,2.7.5,3,.41,1.1133-.0923,2.3655.2,3.5.1146,1.4207-.3833,2.5212.1008,3.9C343.4,49.1,341,47.2,341.1,46.9c-.9008.1854-4.3749.0594-5.6.1a2.4815,2.4815,0,0,0-1.9.1c-1.1563-.0083-3.4352-1.0295-2.9,1.2.6824,1.5779-1.2915,10.391,1.4,9,3.5388.0439,7.4768.151,11-.1007,1.314.5993,2.1341-.99,3-1.3.4.2.4,2.6.3,3-.1963,1.0574.3406,1.8743-.2,2.9C346.4254,62.7974,347.14,66.9889,345.1,65.7Z" fill="#fff"/>
        <path d="M378.1,58.4c-.1267,2.0065.3424,3.7976,0,5.9,0,.5.3,1-.3,1.4-1.2823.4655-3.0363-.5161-4.3.1a2.4522,2.4522,0,0,1-1.9-.1c-1.275-.346-2.51.6917-3.8.3a11.0231,11.0231,0,0,0-3.9-.2c-2.9873.2152-5.87-.1244-8.9.2006-1.6185-.2191-4.3908.5738-2.1-1.9.3-.1.5-.3.4-.6A23.9005,23.9005,0,0,0,353,60a22.7583,22.7583,0,0,0,.1007-3.7c-.0213-4.7258.0646-9.7526.1-14.6a25.6626,25.6626,0,0,0-.0008-3.5c.3-.7-.3-1-.1-1.7a23.9761,23.9761,0,0,0,.2-3.7c.3-.4-.2-1.3-.2-1.7a7.4221,7.4221,0,0,0,0-3c.573-.8685.0331-1.2637,0-2.3.2-.7.5-3-.2-3.4-.5-.3-1.5-1-.7-1.7.4-.3,1.2.1,1.7-.1.6-.3,1,.3,1.7.1a2.4592,2.4592,0,0,1,1.7-.1c.5889.5532,6.75-.8145,6,.7a2.3209,2.3209,0,0,1-.4,1c-.3.2-.7,0-.8.3.2034,8.698.0041,17.6207.2,26.4-.4037,2.4085.1331,4.8353-.2,7.3,0,.3-.3,1,.3,1a6.639,6.639,0,0,1,3.4,0,7.2532,7.2532,0,0,1,2.7-.1c.85-.3121,1.3189.2991,2.1.1,1.5439-.7518,3.5355.0581,5.2,0-.3,0,.5-.6.5-.6C377.6757,54.9566,378.4383,56.8367,378.1,58.4Z" fill="#fff"/>
        <path d="M394.9,64.1c.3.3.2.5.3.8.6.5-.3.9-.7.9-.9677.3609-1.8572,0-2.8.1-1,.3-2-.1-3-.1-1.4758-.0229-4.22,1.1-4.9-.6-.3-.9,1.6-.8,1.3-2a5.3912,5.3912,0,0,1,.1-3c-.022-1.0675-.5383-1.886,0-3-.47-2.5311.0585-4.817-.4008-7.3.5134-3.2986-.09-7.1132.1-10.5a5.7387,5.7387,0,0,1,.2-2.9c.1-.6-.4-1-.3-1.6.3678-.8537-.1636-1.7482.1-2.6.5918-.7282-.2168-1.7757,0-2.6.1622-2.4184.07-4.7772.1-7.2,0-.8-1.1-.9-1.3-1.6-.3-.9.5-.8,1.1-.8,7.7793-.1145,15.8813-.4411,23.4-.0005.5749-.19,1.0028-.5286,1.5.2008.3.3-.2,1.2,0,1.7.2.4,0,1.2,0,1.7-.566,1.1836,1.19,7.2216-1.3,5.8-.5-.3-.6-1.1-1.4-1-3.0156-.068-6.1825.1719-9.2-.1-.6,0-1.2.2-1.8.2-.8208-.1928-2.4728-.771-1.6.8-.1775,1.4811.0923,4.4106,0,6,.067,1.0061-.88,2.9861.8,2.4,1.0114.1439,1.7832.466,2.8,0a2.4416,2.4416,0,0,0,1.9-.1,6.4891,6.4891,0,0,0,2.8,0c1.3,0,1.8.4,2.8-.7,2.3478-2.747.32,8.076,1.3,9,.2983,3.82-2.9605-.8244-5.4.6-2.0637-.12-3.7-.0728-5.8,0-1,.0994-1.2-.3006-1.2.8994-.2322,4.4628.0952,9.2054,0,13.7C394.4265,62.18,393.6072,63.8,394.9,64.1Z" fill="#fff"/>
        <path d="M141.1,123.4c-1.5035-.5938-12.5639.9362-11-1.3,2.0612-1.1282.7948-3.0327,1.1-4.8a40.8653,40.8653,0,0,0-.1-7.2c.812-5.3143-.3043-10.9789.1-16.4.4358-.9638.1137-2.4243,0-3.4.2826-2.4409-.1739-4.8653.2-7.3.2-.5-.3-.8-.3-1.2,0-.3.3-.5.3-.9.1444-1.0642-2.37-2.4072-.8-3.2,1.3391.3686,2.9731-.1318,4.4,0a2.0469,2.0469,0,0,0,1.9,0,112.5577,112.5577,0,0,0,14,.0007c.9,0,1.7.3,2.6.3a3.8724,3.8724,0,0,1,2.4,0c.6.5-.3,1,0,1.7s-.2,1.1.1,1.7a2.017,2.017,0,0,1,0,1.7c-.3.7.2,1.2.1,1.9a3.2838,3.2838,0,0,0-.1,1.7c.4,2-2.2-.3-2.4-.3-2.5555-.1242-4.9594.4329-7.4-.1005-1.6359.5513-3.1268-.1579-4.8.3-1.4787-.6805-.9037-.1313-.9,1a44.579,44.579,0,0,0,.1,7.1c-.1.3-.5,1.7.3,1.2,2.9326-.1411,6.0959.02,9.1-.1.9427.1528,1.3258-1.17,1.9-1.2-.2,0,.8.2.7.1.4634,2.1715-.2784,4.8529.2005,7.1a3.7455,3.7455,0,0,0,0,2.1c.1612,1.609-.6923,2.4384-1.8.9-.2-.3-.3-.5-.7-.4-1.322.0985-2.3812.0966-3.6.3-.9072-.7041-2.04.1227-3-.2-.8-.2-1.7.3-2.5.2-1.2-.3-.3,1.5-.5,2.1a10.734,10.734,0,0,0,0,3.1c0,.6-.3.8.1,1.5.0487.6737-.5829,1.2574-.1,2-.4295,2.6053.3194,5.3748,0,8.1C140.7,121.5,142.6,123.4,141.1,123.4Z" fill="#fff"/>
        <path d="M163.1,121.3c-.55-6.39.1909-12.992-.3-19.5a3.8037,3.8037,0,0,0,0-2.6c.74-1.44.0718-2.9791,0-4.5a80.1435,80.1435,0,0,0,.2-10.1c-.4651-1.154.3946-2.1893-.0008-3.5.6293-2.0145-3.5555-3.6034,1.2006-3.4,1.1394.2126,10.8863-1.134,8.7,1.5-1.9547,2.0008-.3319,6.3-.6006,9a26.8884,26.8884,0,0,0,.0005,9c.1611,3.2135-.6069,7.0645,0,10.1-.3341.7059.0216,1.3866-.0994,2.1-.6121.618-.0666,1.4694-.1,2.3-.1722,3.0859.0669,6.1892.1,9.1-.3.9.1.6.5,1.1.3.3,1,1.6,0,1.6-1.5259.57-3.5089-.2268-5.2-.1a5.48,5.48,0,0,1-2.1.0994C163.2594,123.4318,159.5057,124.0065,163.1,121.3Z" fill="#fff"/>
        <path d="M178.7,77.9c.4-1,2.2-.1,2.9-.3.6-.3,1.1.1,1.7,0,2.28.13,4.3455-.24,6.5.2,4.9317-.398,10.5937-.4769,14,3.8.7353,1.5662,2.3093,3.2546,2,5.1.5971.9168.2885,2.7588.2,3.9.2043,6.1934,1.1915,14.2964-4.6,18.5-1.2433.3839-.7293.7836-.5,1.7a40.937,40.937,0,0,0,2.5,5c1.0909,1.9243,1.8036,4.238,3,6.1.4.5,1.1,1.2,0,1.2a51.7055,51.7055,0,0,1-11.2-.1994c-.2-.2006-.6.1994-.4-.3006l.6-.7c1.3145-.8637.3766-1.821-.3-2.9l-1.6-3.4-.2-.8a5.0015,5.0015,0,0,1-1.4-2.2c-.3612-2.1988-1.0224-1.5713-2.7-1.7-1.3-.4-.4,2.3-.4,2.8-.3594.8133.0266,1.3846,0,2.2a26.9346,26.9346,0,0,0-.1,3.5c.0357.5132-.1112,1.5969.4,1.7,2.4458,2.3514-1.5639,1.851-2.9,2-.7.2-1-.3-1.7-.1-.5.3-.7-.2-1.2-.2-1.4363-.0373-4.562,1.4417-5-.7-.1-.7,1.5-.8,1.3-1.5-.0638-1.6919-.065-3.3893-.2-5.1.42-5.4444-.3369-11.203.2-16.7A1.7419,1.7419,0,0,1,179.6,97c-.6035-2.4469.1107-4.8191-.2-7.3.2938-1.2923-.0406-2.2118,0-3.5.3864-1.7147-.17-3.6146,0-5.4,0-.1.2-1.3.2-1.3C179.7,79.3,178.3,78.8,178.7,77.9Zm12.2,24.9c.9127-.3755,1.8763-.1216,2.9-.5a1.7744,1.7744,0,0,1,1-.4c1.9959-.7359,2.7389-3.3075,2.4-5.2,1.0056-6.1327.0324-11.41-7.4-10.6-1.4913,1.1951-.1612,4.8177-.7,6.6-.3.8.3,1.8.2,2.6a4.9243,4.9243,0,0,0-.2,2.4c.69,1.534-.18,3.37-.1,4.9A12.2523,12.2523,0,0,0,190.9,102.8Z" fill="#fff"/>
        <path d="M218.3,99.4c-1.8369-.558-5.194-5.0943-5-8-.5772-.8426-.0768-1.6831,0-2.6-.2347-1.9039.8924-3.2686,1.4-5a17.1243,17.1243,0,0,1,3.9-3.8c.3-.6.6-.4,1.2-.8a24.9859,24.9859,0,0,1,10.7-2.5c1.4284.4961,2.8369.0929,4.3.8,1.8106.2557,2.9691,1.5149,4.6,2.3.5.4.6,1,1,1.4.4.5.8.3,1,1,.3.5.9.5,1,1.3.2.4.8.5.9,1.1,1.4587,2.7525-1.77,3.1529-3.5,4.5-.5.3-.9.8-1.5.9-1.0351.4759-1.9385,1.8969-3.2,1.8-.2644-.6828.2307-2.0427-.2-2.7-.85-1.0644-2.0955-2.3883-3.5-2.6-.6-.3-1-.9-1.8-.7-1.988.0123-4.1488.0981-5.6,1.7a2.8238,2.8238,0,0,0,1.6,4.3c2.6486,1.333,5.3669,2.2937,8,3.7.3.2.6,0,.9.2a4.3114,4.3114,0,0,0,2.4,1.1c3.6775,2.6738,8.3791,5.73,8.4,10.8-.0921.8.2939,1.389.3,2.2-.4226,1.2666-.3261,3.0659-.8,4.2-.991,1.0252-.8766,2.712-1.9,3.7a7.819,7.819,0,0,1-3,2.9c-1.274,1.3157-3.5544,2.7374-5.5,2.6-1-.3-2,.5-2.9.6a22.6662,22.6662,0,0,1-10-1.8c-.9493-.55-2.2449-1.797-3.3-2-1.1031-1.036-1.7726-2.3806-2.9-3.3-.3-.5-.4-1.3-.9-1.8-.7-1,1-2.4,1.9-2.8,12.3856-9.302,1.8772-2.3131,11.2,1.8.3.2.6,0,.9,0a2.39,2.39,0,0,0,.9.3c1.54-.1873,3.7274.0146,4.6-1.4,1.29-1.4018,1.3644-2.2178,1.0993-4.1006.2006-1.6-2.9994-2.4-3.6994-3.5-3.6492-1.783-8.0557-2.9641-11.4-5.5A1.6428,1.6428,0,0,1,218.3,99.4Z" fill="#fff"/>
        <path d="M245.8,86.4c-.0543-1.8424-.6609-3.7756-.1-5.6-.3039-1.059-.6191-4.2606,1.3-3.1,1.5688.0805,2.6175-.5283,3.9-.1,2.93.12,6.038.1175,8.9.0007,4.82.0124,9.8084-.0431,14.6-.1,1.9017-.6121,1.06,5.62.9,6.7.0424.6813.6612,3.2525-.5,3.2a3.25,3.25,0,0,1-1.3-1c-1.5208-1.2871-4.1.2219-5.8-.3-.3,0-.6.3-1,.3-.3955-.0446-2.0776-.7066-1.8.3.2,1.7981-.3747,3.645-.1,5.5-.2457,1.1665.5993,2.1027-.1,3.2a10.9822,10.9822,0,0,0,.3,3.8c-.1356,1.0329-.4732,1.638,0,2.6-.6184,1.5866-.0424,3.1853-.1,4.7-.5,1.1.2,2.4.1,3.5-.079,3.7382-.3471,7.3237-.2,11,2.2925,2.6142,1.1267,2.4515-1.7,2-.6-.1-1.1.3-1.7.3-.5.1-1-.5-1.5-.3-1.0758.775-2.455-.137-3.6,0a4.8173,4.8173,0,0,1-1.7,0c-.7-.8,1.6-1.8,1.2-2.4-.6-1,.2-2.5,0-3.7-.1-.6.1-1.1-.2-1.7-.2-.5.3-1.1,0-1.7.5014-3.6287-.1724-7.3938.1-11.1.3-.6-.2-1.1.1-1.7.2-.7-.3-1-.2-1.7.4619-1.1476-.3092-2.5252.2-3.6a3.208,3.208,0,0,0-.2-1.7c-.1-.7.3-1.1.1-1.7-.3-.6.1-1.5.1-2.1a17.8962,17.8962,0,0,1-.1-3.4c-2.7264-.3871-5.6076.5011-8.4-.2-.531.4955-.68,1.6922-1.7,1.5C245.9,87.5,245.8,86.5,245.8,86.4Z" fill="#fff"/>
        <path d="M285.8,123.8c-6.6813-1.3091-6.4094-11.097.3-12.1A6.11,6.11,0,0,1,293,118c.4689,2.6542-2.1412,4.205-3.9,5.6-.5.3-1.5.1-2.1.1C286.6,123.7,286.3,124.1,285.8,123.8Z" fill="#fff"/>
      </g>
      <rect width="415" height="134" fill="none"/>
    </g>
  </g>
</svg>
